1,1,101,DeluxeRoom,
1,1,102,StandardRoom,
1,1,103,StandardRoom,
1,1,104,DeluxeRoom,
1,1,105,DeluxeRoom,
1,1,106,StandardRoom,
1,1,107,StandardRoom,
1,1,108,StandardRoom,
1,1,109,StandardRoom,
1,1,110,StandardRoom,
1,2,201,StandardRoom,
1,2,202,StandardRoom,
1,2,203,StandardRoom,
1,2,204,StandardRoom,
1,2,205,StandardRoom,
1,2,206,StandardRoom,
1,2,207,StandardRoom,
1,2,208,StandardRoom,
1,2,209,StandardRoom,
1,2,210,StandardRoom,
1,3,301,StandardRoom,
1,3,302,StandardRoom,
1,3,303,StandardRoom,
1,3,304,StandardRoom,
1,3,305,StandardRoom,
1,3,306,StandardRoom,
1,3,307,StandardRoom,
1,3,308,StandardRoom,
1,3,309,StandardRoom,
1,3,310,StandardRoom,
1,4,401,StandardRoom,
1,4,402,StandardRoom,
1,4,403,StandardRoom,
1,4,404,StandardRoom,
1,4,405,StandardRoom,
1,4,406,StandardRoom,
1,4,407,StandardRoom,
1,4,408,StandardRoom,
1,4,409,StandardRoom,
1,4,410,StandardRoom,
1,5,501,StandardRoom,
1,5,502,StandardRoom,
1,5,503,StandardRoom,
1,5,504,StandardRoom,
1,5,505,StandardRoom,
1,5,506,StandardRoom,
1,5,507,StandardRoom,
1,5,508,StandardRoom,
1,5,509,StandardRoom,
1,5,510,StandardRoom,
1,6,601,StandardRoom,
1,6,602,StandardRoom,
1,6,603,StandardRoom,
1,6,604,StandardRoom,
1,6,605,StandardRoom,
1,6,606,StandardRoom,
1,6,607,StandardRoom,
1,6,608,StandardRoom,
1,6,609,StandardRoom,
1,6,610,StandardRoom,
1,7,701,StandardRoom,
1,7,702,StandardRoom,
1,7,702,StandardRoom,
1,7,703,StandardRoom,
1,7,704,StandardRoom,
1,7,705,StandardRoom,
1,7,706,StandardRoom,
1,7,707,StandardRoom,
1,7,708,StandardRoom,
1,7,709,StandardRoom,
1,7,710,StandardRoom,
1,8,801,StandardRoom,
1,8,802,StandardRoom,
1,8,803,StandardRoom,
1,8,804,StandardRoom,
1,8,805,StandardRoom,
1,8,806,StandardRoom,
1,8,807,StandardRoom,
1,8,808,StandardRoom,
1,8,809,StandardRoom,
1,8,810,StandardRoom,
1,9,901,StandardRoom,
1,9,902,StandardRoom,
1,9,903,StandardRoom,
1,9,904,StandardRoom,
1,9,905,StandardRoom,
1,9,906,StandardRoom,
1,9,907,StandardRoom,
1,9,908,StandardRoom,
1,9,909,StandardRoom,
1,9,910,StandardRoom,
