2,1,101,DeluxeRoom,
2,1,102,StandardRoom,
2,1,103,StandardRoom,
2,1,104,StandardRoom,
2,1,105,StandardRoom,
2,1,106,StandardRoom,
2,1,107,StandardRoom,
2,1,108,StandardRoom,
2,1,109,StandardRoom,
2,1,110,StandardRoom,
2,2,201,StandardRoom,
2,2,202,StandardRoom,
2,2,203,StandardRoom,
2,2,204,StandardRoom,
2,2,205,StandardRoom,
2,2,206,StandardRoom,
2,2,207,StandardRoom,
2,2,208,StandardRoom,
2,2,209,StandardRoom,
2,2,210,StandardRoom,
2,3,301,StandardRoom,
2,3,302,StandardRoom,
2,3,303,StandardRoom,
2,3,304,StandardRoom,
2,3,305,StandardRoom,
2,3,306,StandardRoom,
2,3,307,StandardRoom,
2,3,308,StandardRoom,
2,3,309,StandardRoom,
2,3,310,StandardRoom,
2,4,401,StandardRoom,
2,4,402,StandardRoom,
2,4,403,StandardRoom,
2,4,404,StandardRoom,
2,4,405,StandardRoom,
2,4,406,StandardRoom,
2,4,407,StandardRoom,
2,4,408,StandardRoom,
2,4,409,StandardRoom,
2,4,410,StandardRoom,
2,5,501,StandardRoom,
2,5,502,StandardRoom,
2,5,503,StandardRoom,
2,5,504,StandardRoom,
2,5,505,StandardRoom,
2,5,506,StandardRoom,
2,5,507,StandardRoom,
2,5,508,StandardRoom,
2,5,509,StandardRoom,
2,5,510,StandardRoom,
2,6,601,StandardRoom,
2,6,602,StandardRoom,
2,6,603,StandardRoom,
2,6,604,StandardRoom,
2,6,605,StandardRoom,
2,6,606,StandardRoom,
2,6,607,StandardRoom,
2,6,608,StandardRoom,
2,6,609,StandardRoom,
2,6,610,StandardRoom,
2,7,701,StandardRoom,
2,7,702,StandardRoom,
2,7,702,StandardRoom,
2,7,703,StandardRoom,
2,7,704,StandardRoom,
2,7,705,StandardRoom,
2,7,706,StandardRoom,
2,7,707,StandardRoom,
2,7,708,StandardRoom,
2,7,709,StandardRoom,
2,7,710,StandardRoom,
2,8,801,StandardRoom,
2,8,802,StandardRoom,
2,8,803,StandardRoom,
2,8,804,StandardRoom,
2,8,805,StandardRoom,
2,8,806,StandardRoom,
2,8,807,StandardRoom,
2,8,808,StandardRoom,
2,8,809,StandardRoom,
2,8,810,StandardRoom,
2,9,901,StandardRoom,
2,9,902,StandardRoom,
2,9,903,StandardRoom,
2,9,904,StandardRoom,
2,9,905,StandardRoom,
2,9,906,StandardRoom,
2,9,907,StandardRoom,
2,9,908,StandardRoom,
2,9,909,StandardRoom,
2,9,910,StandardRoom,
