Employee,Hamma,Baki,0000,0000,2020-12-01,13:34:15
Employee,Nungmhar,EIEI,1234,1,2020-12-01,12:51:42
Employee,addd,aa,123,1,2020-12-01,11:03:10
Employee,Neo,dum,dum,123,2020-11-30,06:49:19
Employee,AA1234,1234,12,1,2020-11-30,05:29:42
Employee,adwdwa,adawdaw,00001,2020,2020-11-30,05:17:58
Employee,Chatchai,dadad,00002,123,2020-11-30,05:16:16
