Letter,EMMIE,BOOLJUN,sadsadas,sdsadasd,ddasdasd,1.0,file:/C:/Users/EMMIE/Desktop/project%20java/projectFinal/src/main/resources/SupplyPic/Letter.jpeg,2020-12-01,13:26:28,
Document,EMMIE,BOOLJUN,asadasdas,asdasdasda,dsadsad,2.0,Secret,file:/C:/Users/EMMIE/Desktop/project%20java/projectFinal/src/main/resources/SupplyPic/Document.png,2020-12-01,12:46:07,
Letter,EMMIE,BOOLJUN,Dadadsad,dddasada,dwsdadwad,1.0,file:/C:/Users/EMMIE/Desktop/project%20java/projectFinal/src/main/resources/SupplyPic/Letter.jpeg,2020-12-01,12:45:21,
Letter,EMMIE,BOOLJUN,aaaa,sssdsds,dsadsada,1.0,file:/C:/Users/EMMIE/Desktop/project%20java/projectFinal/src/main/resources/SupplyPic/Letter.jpeg,2020-12-01,12:41:33,
Document,EMMIE,BOOLJUN,ddddd,asdadsa,dsadsadasdasd,1.0,Normal,file:/C:/Users/EMMIE/Desktop/project%20java/projectFinal/src/main/resources/SupplyPic/Document.png,2020-12-01,12:39:57,
Letter,EMMIE,BOOLJUN,sadsadada,sadasdasda,sadasdaxdasd,1.0,file:/C:/Users/EMMIE/Desktop/project%20java/projectFinal/src/main/resources/SupplyPic/Letter.jpeg,2020-12-01,12:39:04,
Letter,EMMIE,BOOLJUN,dddd,asdadaa,sdadada,1.0,file:/C:/Users/EMMIE/Desktop/project%20java/projectFinal/src/main/resources/SupplyPic/Letter.jpeg,2020-12-01,11:47:01,
